Top level NetCDF metadata. — nc_meta • ncmeta
…
#> 2     1 lon             4320 FALSE TRUE     
#> 3     2 rgb                3 FALSE FALSE    
#> 4     3 eightbitcolor    256 FALSE FALSE    
#> 
#> $variable
#> # A tibble: 4 × 6
#>      id name    type     ndims natts dim_coord
#>   <int> <chr>   <chr>    <int> <int> <lgl>    
#> 1     0 chlor_a NC_FLOAT     2    12 FALSE    
#> 2     1 lat     NC_FLOAT     1     5 TRUE     
#> 3     2 lon     NC_FLOAT     1     5 TRUE     
#> 4     3 palette NC_UBYTE     2     0 FALSE    
#> 
#> $attribute
#> # A tibble: 87 × 4
#>       id name          variable value       
#>    <int> <chr>         <chr>    <named list>
#>  1     0 long_name     chlor_a  <chr [1]>   
#>  2     1 units         chlor_a  <chr [1]>   
#>  3     2 standard_name chlor_a  <chr [1]>   
#>  4     3 _FillValue    chlor_a  <dbl [1]>   
#>  5     4 valid_min     chlor_a  <dbl [1]>   
#>  6     5 valid_max     chlor_a  <dbl [1]>   
#>  7     6 display_scale chlor_a  <chr [1]>   
#>  8     7 display_min   chlor_a  <dbl [1]>   
#>  9     8 display_max   chlor_a  <dbl [1]>   
#> 10     9 scale_factor  chlor_a  <dbl [1]>   
#> # … with 77 more rows
…
