Top level NetCDF metadata. — nc_meta • ncmeta
…
#> 2     1 lon             4320 FALSE TRUE     
#> 3     2 rgb                3 FALSE FALSE    
#> 4     3 eightbitcolor    256 FALSE FALSE    
#> 
#> $variable
#> # A tibble: 4 x 6
#>      id name    type     ndims natts dim_coord
#>   <dbl> <chr>   <chr>    <dbl> <dbl> <lgl>    
#> 1     0 chlor_a NC_FLOAT     2    12 FALSE    
#> 2     1 lat     NC_FLOAT     1     5 TRUE     
#> 3     2 lon     NC_FLOAT     1     5 TRUE     
#> 4     3 palette UNKNOWN      2     0 FALSE    
#> 
#> $attribute
#> # A tibble: 87 x 4
#>       id name          variable value    
#>    <dbl> <chr>         <chr>    <list>   
#>  1     0 long_name     chlor_a  <chr [1]>
#>  2     1 units         chlor_a  <chr [1]>
#>  3     2 standard_name chlor_a  <chr [1]>
#>  4     3 _FillValue    chlor_a  <dbl [1]>
#>  5     4 valid_min     chlor_a  <dbl [1]>
#>  6     5 valid_max     chlor_a  <dbl [1]>
#>  7     6 display_scale chlor_a  <chr [1]>
#>  8     7 display_min   chlor_a  <dbl [1]>
#>  9     8 display_max   chlor_a  <dbl [1]>
#> 10     9 scale_factor  chlor_a  <dbl [1]>
#> # … with 77 more rows
…
#>  7     6 s.stop_latitude          NC_FLOAT      1     4 FALSE    
#>  8     7 s.stop_longitude         NC_FLOAT      1     4 FALSE    
#>  9     8 s.time                   NC_DOUBLE     1     9 FALSE    
#> 10     9 s.haulback_time          NC_DOUBLE     1     6 FALSE    
#> 11    10 s.surface_temp           NC_FLOAT      1     4 FALSE    
#> 12    11 s.surface_temp_method    NC_CHAR       2     3 FALSE    
#> 13    12 s.ship_spd_through_water NC_FLOAT      1     4 FALSE    
#> 14    13 s.itis_tsn               NC_INT        1     3 FALSE    
#> 15    14 s.scientific_name        NC_CHAR       2     3 FALSE    
#> 16    15 s.subsample_count        NC_INT        1     3 FALSE    
#> 17    16 s.subsample_weight       NC_FLOAT      1     4 FALSE    
#> 18    17 s.remaining_weight       NC_FLOAT      1     4 FALSE    
#> 
#> $attribute
#> # A tibble: 119 x 4
#>       id name          variable value    
#>    <dbl> <chr>         <chr>    <list>   
#>  1     0 actual_range  s.cruise <dbl [2]>
#>  2     1 description   s.cruise <chr [1]>
#>  3     2 ioos_category s.cruise <chr [1]>
#>  4     3 long_name     s.cruise <chr [1]>
#>  5     0 description   s.ship   <chr [1]>
#>  6     1 ioos_category s.ship   <chr [1]>
#>  7     2 long_name     s.ship   <chr [1]>
#>  8     0 actual_range  s.haul   <dbl [2]>
#>  9     1 description   s.haul   <chr [1]>
#> 10     2 ioos_category s.haul   <chr [1]>
#> # … with 109 more rows
#> 
#> $axis
#> # A tibble: 21 x 3
#>     axis variable         dimension
#>    <int> <chr>                <dbl>
#>  1     1 s.cruise                 1
#>  2     2 s.ship                   0
#>  3     3 s.ship                   1
#>  4     4 s.haul                   1
#>  5     5 s.collection             1
#>  6     6 s.latitude               1
#>  7     7 s.longitude              1
#>  8     8 s.stop_latitude          1
#>  9     9 s.stop_longitude         1
#> 10    10 s.time                   1
#> # … with 11 more rows
…
